{
    // Required
    // Must be one of the following: [ BAD_REQUEST, SHOP_NOT_FOUND, SKU_NOT_FOUND, NOT_IN_STOCK, UNEXPECTED_ERROR, COMPONENT_NOT_FOUND, CONFIG_ERROR ]
    "code": "BAD_REQUEST",
    // Required
    "message": "The request entity had validation errors",
    // Optional
    "validationErrors": [
        "user.emailAddress may not be empty"
    ]
}
